{
	"format_version": "1.8.0",
	"animations": {
		"idle": {
			"loop": true,
			"animation_length": 0.5
		},
		"walking": {
			"loop": true,
			"animation_length": 0.5,
			"bones": {
				"leftleg": {
					"rotation": {
						"0.0": {
							"vector": [0, 0, 0]
						},
						"0.25": {
							"vector": [5, 0, 0]
						},
						"0.5": {
							"vector": [0, 0, 0]
						}
					}
				},
				"rightleg": {
					"rotation": {
						"0.0": {
							"vector": [17.5, 0, 0]
						},
						"0.25": {
							"vector": [0, 0, 0]
						},
						"0.5": {
							"vector": [20, 0, 0]
						}
					}
				},
				"leftarm": {
					"rotation": {
						"0.0": {
							"vector": [0, -40, 0]
						},
						"0.25": {
							"vector": [0, 40, 0]
						},
						"0.5": {
							"vector": [0, 0, 0]
						}
					}
				},
				"rightarm": {
					"rotation": {
						"0.0": {
							"vector": [0, -40, 0]
						},
						"0.25": {
							"vector": [0, 40, 0]
						},
						"0.5": {
							"vector": [0, -35, 0]
						}
					}
				}
			}
		}
	},
	"geckolib_format_version": 2
}